[gd_scene load_steps=7 format=2]

[ext_resource path="res://Prefabs/NetworkTransform/NetworkTransform.tscn" type="PackedScene" id=1]
[ext_resource path="res://Prefabs/NetworkEntity/NetworkEntity.tscn" type="PackedScene" id=2]
[ext_resource path="res://Prefabs/GolfBall/GolfBall.gd" type="Script" id=3]

[sub_resource type="PhysicsMaterial" id=3]
friction = 80.0
rough = true
bounce = 0.5

[sub_resource type="SpatialMaterial" id=2]
albedo_color = Color( 0, 0.811765, 1, 1 )

[sub_resource type="SphereShape" id=1]
radius = 0.2

[node name="GolfBall" type="RigidBody"]
physics_material_override = SubResource( 3 )
script = ExtResource( 3 )

[node name="NetworkEntity" parent="." instance=ExtResource( 2 )]

[node name="NetworkTransform" parent="." instance=ExtResource( 1 )]

[node name="CSGSphere" type="CSGSphere" parent="."]
radius = 0.2
radial_segments = 14
rings = 8
material = SubResource( 2 )

[node name="CollisionShape" type="CollisionShape" parent="."]
shape = SubResource( 1 )
