[gd_scene load_steps=7 format=2]

[ext_resource path="res://Prefabs/NetworkTransform/NetworkTransform.tscn" type="PackedScene" id=1]
[ext_resource path="res://Prefabs/NetworkEntity/NetworkEntity.tscn" type="PackedScene" id=2]
[ext_resource path="res://GamePrefabs/Lego/Lego.gd" type="Script" id=3]

[sub_resource type="SpatialMaterial" id=4]
uv1_scale = Vector3( 3, 2, 1 )

[sub_resource type="CubeMesh" id=3]

[sub_resource type="BoxShape" id=2]

[node name="Part" type="RigidBody"]
script = ExtResource( 3 )

[node name="Box" type="MeshInstance" parent="."]
material_override = SubResource( 4 )
mesh = SubResource( 3 )
material/0 = null

[node name="CollisionShape" type="CollisionShape" parent="."]
shape = SubResource( 2 )

[node name="NetworkEntity" parent="." instance=ExtResource( 2 )]

[node name="NetworkTransform" parent="." instance=ExtResource( 1 )]

[connection signal="on_set" from="NetworkEntity" to="." method="_on_NetworkEntity_on_set"]
